<?xml version="1.0" encoding="UTF-8" standalone="no"?>
<!-- Created with Inkscape (http://www.inkscape.org/) -->

<svg
   xmlns:dc="http://purl.org/dc/elements/1.1/"
   xmlns:cc="http://creativecommons.org/ns#"
   xmlns:rdf="http://www.w3.org/1999/02/22-rdf-syntax-ns#"
   xmlns:svg="http://www.w3.org/2000/svg"
   xmlns="http://www.w3.org/2000/svg"
   xmlns:sodipodi="http://sodipodi.sourceforge.net/DTD/sodipodi-0.dtd"
   xmlns:inkscape="http://www.inkscape.org/namespaces/inkscape"
   width="210mm"
   height="297mm"
   viewBox="0 0 210 297"
   version="1.1"
   id="svg8"
   inkscape:version="0.92.4 (5da689c313, 2019-01-14)"
   sodipodi:docname="score.svg">
  <defs
     id="defs2" />
  <sodipodi:namedview
     id="base"
     pagecolor="#ffffff"
     bordercolor="#666666"
     borderopacity="1.0"
     inkscape:pageopacity="0.0"
     inkscape:pageshadow="2"
     inkscape:zoom="3"
     inkscape:cx="553.31451"
     inkscape:cy="622.57577"
     inkscape:document-units="mm"
     inkscape:current-layer="layer1"
     showgrid="false"
     inkscape:window-width="1920"
     inkscape:window-height="1017"
     inkscape:window-x="-8"
     inkscape:window-y="-8"
     inkscape:window-maximized="1" />
  <metadata
     id="metadata5">
    <rdf:RDF>
      <cc:Work
         rdf:about="">
        <dc:format>image/svg+xml</dc:format>
        <dc:type
           rdf:resource="http://purl.org/dc/dcmitype/StillImage" />
        <dc:title></dc:title>
      </cc:Work>
    </rdf:RDF>
  </metadata>
  <g
     inkscape:label="圖層 1"
     inkscape:groupmode="layer"
     id="layer1">
    <path
       style="fill:none;stroke:#000000;stroke-width:0.26458332px;stroke-linecap:butt;stroke-linejoin:miter;stroke-opacity:1"
       d="m 120.5618,196.01736 c 48.24236,0 48.24236,0 48.24236,0"
       id="path14"
       inkscape:connector-curvature="0" />
    <text
       xml:space="preserve"
       style="font-style:normal;font-weight:normal;font-size:4.34756804px;line-height:1.25;font-family:sans-serif;letter-spacing:0px;word-spacing:0px;fill:#000000;fill-opacity:1;stroke:none;stroke-width:0.1086892"
       x="130.7419"
       y="184.77597"
       id="text18"
       transform="scale(0.90019295,1.1108729)"><tspan
         sodipodi:role="line"
         id="tspan16"
         x="130.7419"
         y="184.77597"
         style="stroke-width:0.1086892">0</tspan></text>
    <text
       xml:space="preserve"
       style="font-style:normal;font-weight:normal;font-size:5.51125669px;line-height:1.25;font-family:sans-serif;letter-spacing:0px;word-spacing:0px;fill:#000000;fill-opacity:1;stroke:none;stroke-width:0.13778141"
       x="149.94897"
       y="230.48433"
       id="text22"
       transform="scale(1.133593,0.88215083)"><tspan
         sodipodi:role="line"
         id="tspan20"
         x="149.94897"
         y="230.48433"
         style="stroke-width:0.13778141">100</tspan></text>
    <path
       style="fill:none;stroke:#9d0000;stroke-width:0.26458332px;stroke-linecap:butt;stroke-linejoin:miter;stroke-opacity:1"
       d="m 160.69027,192.48958 c 0,8.29028 0,8.29028 0,8.29028"
       id="path24"
       inkscape:connector-curvature="0" />
    <text
       xml:space="preserve"
       style="font-style:normal;font-weight:normal;font-size:4.35918856px;line-height:1.25;font-family:sans-serif;letter-spacing:0px;word-spacing:0px;fill:#000000;fill-opacity:1;stroke:none;stroke-width:0.10897972"
       x="154.69055"
       y="210.13873"
       id="text851"
       transform="scale(1.0219634,0.97850864)"><tspan
         sodipodi:role="line"
         id="tspan849"
         x="154.69055"
         y="210.13873"
         style="stroke-width:0.10897972">90</tspan></text>
    <text
       xml:space="preserve"
       style="font-style:normal;font-weight:normal;font-size:10.58333302px;line-height:1.25;font-family:sans-serif;letter-spacing:0px;word-spacing:0px;fill:#000000;fill-opacity:1;stroke:none;stroke-width:0.26458332"
       x="163.60069"
       y="186.31596"
       id="text855"><tspan
         sodipodi:role="line"
         id="tspan853"
         x="163.60069"
         y="186.31596"
         style="stroke-width:0.26458332">A</tspan></text>
    <path
       style="fill:none;stroke:#000000;stroke-width:0.23864305px;stroke-linecap:butt;stroke-linejoin:miter;stroke-opacity:1"
       d="m 121.31146,211.01041 c 39.24653,0 39.24653,0 39.24653,0"
       id="path14-0"
       inkscape:connector-curvature="0" />
    <path
       style="fill:none;stroke:#9d0000;stroke-width:0.26458332px;stroke-linecap:butt;stroke-linejoin:miter;stroke-opacity:1"
       d="m 149.48958,207.65902 c 0,8.29028 0,8.29028 0,8.29028"
       id="path24-8"
       inkscape:connector-curvature="0" />
    <text
       xml:space="preserve"
       style="font-style:normal;font-weight:normal;font-size:4.35918856px;line-height:1.25;font-family:sans-serif;letter-spacing:0px;word-spacing:0px;fill:#000000;fill-opacity:1;stroke:none;stroke-width:0.10897972"
       x="144.51315"
       y="225.85594"
       id="text851-7"
       transform="scale(1.0219634,0.97850863)"><tspan
         sodipodi:role="line"
         id="tspan849-9"
         x="144.51315"
         y="225.85594"
         style="stroke-width:0.10897972">80</tspan></text>
    <rect
       style="fill:none;stroke:#000000;stroke-width:0.23745711;stroke-opacity:1"
       id="rect4618"
       width="10.368962"
       height="10.368962"
       x="41.884159"
       y="100.09499"
       transform="matrix(0.78788401,-0.61582366,0.78788401,0.61582366,0,0)" />
    <rect
       style="fill:none;stroke:#000000;stroke-width:0.26458332;stroke-opacity:1"
       id="rect4620"
       width="18.785416"
       height="7.4083333"
       x="110.24306"
       y="12.925694" />
    <text
       xml:space="preserve"
       style="font-style:normal;font-weight:normal;font-size:3.48820734px;line-height:1.25;font-family:sans-serif;letter-spacing:0px;word-spacing:0px;fill:#000000;fill-opacity:1;stroke:none;stroke-width:0.08720518"
       x="129.32915"
       y="15.980286"
       id="text4624"
       transform="scale(0.8874947,1.1267673)"><tspan
         sodipodi:role="line"
         id="tspan4622"
         x="129.32915"
         y="15.980286"
         style="stroke-width:0.08720518">起始式</tspan></text>
    <path
       style="fill:none;stroke:#000000;stroke-width:0.26458332px;stroke-linecap:butt;stroke-linejoin:miter;stroke-opacity:1"
       d="m 119.85625,3.7534722 c 0,9.2604168 0,9.2604168 0,9.2604168"
       id="path4626"
       inkscape:connector-curvature="0" />
    <path
       style="fill:none;stroke:#000000;stroke-width:0.26458332px;stroke-linecap:butt;stroke-linejoin:miter;stroke-opacity:1"
       d="m 120.03265,42.233063 c 0,9.260417 0,9.260417 0,9.260417"
       id="path4626-9"
       inkscape:connector-curvature="0" />
    <path
       style="fill:none;stroke:#000000;stroke-width:0.26458332px;stroke-linecap:butt;stroke-linejoin:miter;stroke-opacity:1"
       d="m 120.03264,20.201741 c 0,9.260417 0,9.260417 0,9.260417"
       id="path4626-9-4"
       inkscape:connector-curvature="0" />
    <path
       style="fill:none;stroke:#000000;stroke-width:0.26458332px;stroke-linecap:butt;stroke-linejoin:miter;stroke-opacity:1"
       d="m 137.46261,35.847612 c -9.26042,0 -9.26042,0 -9.26042,0"
       id="path4626-9-2"
       inkscape:connector-curvature="0" />
    <rect
       style="fill:none;stroke:#000000;stroke-width:0.26458332;stroke-opacity:1"
       id="rect4620-6"
       width="18.785418"
       height="7.4083333"
       x="137.53925"
       y="32.328472" />
    <text
       xml:space="preserve"
       style="font-style:normal;font-weight:normal;font-size:3.48820734px;line-height:1.25;font-family:sans-serif;letter-spacing:0px;word-spacing:0px;fill:#000000;fill-opacity:1;stroke:none;stroke-width:0.08720518"
       x="131.00688"
       y="32.610508"
       id="text4624-7"
       transform="scale(0.8874947,1.1267673)"><tspan
         sodipodi:role="line"
         id="tspan4622-8"
         x="131.00688"
         y="32.610508"
         style="stroke-width:0.08720518">判斷式</tspan></text>
    <rect
       style="fill:none;stroke:#000000;stroke-width:0.26458332;stroke-opacity:1"
       id="rect4620-6-8"
       width="18.785419"
       height="7.4083333"
       x="165.76144"
       y="32.416664" />
    <path
       style="fill:none;stroke:#000000;stroke-width:0.26458332px;stroke-linecap:butt;stroke-linejoin:miter;stroke-opacity:1"
       d="m 165.58507,36.120833 c -9.26042,0 -9.26042,0 -9.26042,0"
       id="path4626-9-2-7"
       inkscape:connector-curvature="0" />
    <text
       xml:space="preserve"
       style="font-style:normal;font-weight:normal;font-size:5.62981606px;line-height:1.25;font-family:sans-serif;letter-spacing:0px;word-spacing:0px;fill:#000000;fill-opacity:1;stroke:none;stroke-width:0.14074539"
       x="142.73016"
       y="37.150326"
       id="text4747"
       transform="scale(0.99773642,1.0022687)"><tspan
         sodipodi:role="line"
         id="tspan4745"
         x="142.73016"
         y="37.150326"
         style="stroke-width:0.14074539">{   }</tspan></text>
    <text
       xml:space="preserve"
       style="font-style:normal;font-weight:normal;font-size:3.48820734px;line-height:1.25;font-family:sans-serif;letter-spacing:0px;word-spacing:0px;fill:#000000;fill-opacity:1;stroke:none;stroke-width:0.08720518"
       x="191.52602"
       y="33.080139"
       id="text4624-6"
       transform="scale(0.8874947,1.1267673)"><tspan
         sodipodi:role="line"
         id="tspan4622-9"
         x="191.52602"
         y="33.080139"
         style="stroke-width:0.08720518">步進式</tspan></text>
    <path
       style="fill:none;stroke:#000000;stroke-width:0.21603137px;stroke-linecap:butt;stroke-linejoin:miter;stroke-opacity:1"
       d="m 176.91806,26.375346 c 0,6.173612 0,6.173612 0,6.173612"
       id="path4626-9-4-8"
       inkscape:connector-curvature="0" />
    <path
       style="fill:none;stroke:#000000;stroke-width:0.65219593px;stroke-linecap:butt;stroke-linejoin:miter;stroke-opacity:1"
       d="m 176.78577,26.33125 c -56.26806,0 -56.26806,0 -56.26806,0"
       id="path4626-9-2-7-8"
       inkscape:connector-curvature="0" />
    <text
       xml:space="preserve"
       style="font-style:normal;font-weight:normal;font-size:10.58333302px;line-height:1.25;font-family:sans-serif;letter-spacing:0px;word-spacing:0px;fill:#000000;fill-opacity:1;stroke:none;stroke-width:0.26458332"
       x="135.37848"
       y="12.308333"
       id="text4799"><tspan
         sodipodi:role="line"
         id="tspan4797"
         x="135.37848"
         y="12.308333"
         style="stroke-width:0.26458332">for</tspan></text>
    <path
       style="fill:none;stroke:#000000;stroke-width:0.26458332px;stroke-linecap:butt;stroke-linejoin:miter;stroke-opacity:1"
       d="m 118.62153,10.720833 c 0.0294,0.146991 0.0325,0.301792 0.0882,0.440972 0.0109,0.0273 0.0674,-0.02079 0.0882,0 0.088,0.08796 0.17662,0.441206 0.26458,0.529167 0.0465,0.04648 0.13992,0.0335 0.17639,0.08819 0.0326,0.04892 0,0.117592 0,0.176388 0,0.0294 -0.0208,0.06741 0,0.08819 0.0208,0.02079 0.0674,-0.02079 0.0882,0 0.031,0.03096 -0.0305,0.380053 0,0.440972 0.0186,0.03719 0.0696,0.05101 0.0882,0.08819 0.0608,0.121652 -0.10681,0.07889 0.0882,0.176389 0.0263,0.01315 0.0603,-0.0093 0.0882,0 0.0624,0.02079 0.11402,0.06741 0.17638,0.0882 0.0279,0.0093 0.0588,0 0.0882,0 0.0588,0 0.11935,0.01426 0.17639,0 0.27614,-0.06904 0.21248,-0.253913 0.35278,-0.440972 0.0499,-0.06652 0.13026,-0.107204 0.17638,-0.176389 0.0326,-0.04892 -0.0263,-0.1238 0,-0.176389 0.0186,-0.03719 0.075,-0.04875 0.0882,-0.08819 0.0312,-0.09372 -0.0312,-0.259061 0,-0.352777 0.0208,-0.06236 0.0674,-0.114026 0.0882,-0.176389 0.009,-0.02789 -0.0131,-0.0619 0,-0.0882 0.0186,-0.03719 0.075,-0.04875 0.0882,-0.08819 0.0186,-0.05578 -0.0416,-0.134814 0,-0.176389 0.0416,-0.04157 0.1238,0.02629 0.17639,0 0.0263,-0.01315 -0.0208,-0.06741 0,-0.08819 0.14699,-0.146991 0.0882,0.323379 0.0882,-0.176389"
       id="path4801"
       inkscape:connector-curvature="0" />
    <text
       xml:space="preserve"
       style="font-style:normal;font-weight:normal;font-size:10.58333302px;line-height:1.25;font-family:sans-serif;letter-spacing:0px;word-spacing:0px;fill:#000000;fill-opacity:1;stroke:none;stroke-width:0.26458332"
       x="135.59895"
       y="84.715965"
       id="text4809"><tspan
         sodipodi:role="line"
         id="tspan4807"
         x="135.59895"
         y="84.715965"
         style="stroke-width:0.26458332">b=a++</tspan></text>
    <text
       xml:space="preserve"
       style="font-style:normal;font-weight:normal;font-size:10.58333302px;line-height:1.25;font-family:sans-serif;letter-spacing:0px;word-spacing:0px;fill:#000000;fill-opacity:1;stroke:none;stroke-width:0.26458332"
       x="136.07973"
       y="101.00352"
       id="text4809-6"><tspan
         sodipodi:role="line"
         id="tspan4807-0"
         x="136.07973"
         y="101.00352"
         style="stroke-width:0.26458332">b=++a</tspan></text>
    <text
       xml:space="preserve"
       style="font-style:normal;font-weight:normal;font-size:5.09660006px;line-height:1.25;font-family:sans-serif;letter-spacing:0px;word-spacing:0px;fill:#000000;fill-opacity:1;stroke:none;stroke-width:0.127415"
       x="124.3115"
       y="21.90938"
       id="text4831"
       transform="scale(1.0458125,0.95619436)"><tspan
         sodipodi:role="line"
         id="tspan4829"
         x="124.3115"
         y="21.90938"
         style="stroke-width:0.127415">i=0</tspan></text>
    <text
       xml:space="preserve"
       style="font-style:normal;font-weight:normal;font-size:5.29823351px;line-height:1.25;font-family:sans-serif;letter-spacing:0px;word-spacing:0px;fill:#000000;fill-opacity:1;stroke:none;stroke-width:0.13245584"
       x="113.75475"
       y="40.463211"
       id="text4835"
       transform="scale(0.94695007,1.0560219)"><tspan
         sodipodi:role="line"
         id="tspan4833"
         x="113.75475"
         y="40.463211"
         style="stroke-width:0.13245584">i&lt;8</tspan></text>
    <text
       xml:space="preserve"
       style="font-style:normal;font-weight:normal;font-size:6.30727196px;line-height:1.25;font-family:sans-serif;letter-spacing:0px;word-spacing:0px;fill:#000000;fill-opacity:1;stroke:none;stroke-width:0.15768179"
       x="174.62686"
       y="44.727642"
       id="text4839"
       transform="scale(0.97236935,1.0284158)"><tspan
         sodipodi:role="line"
         id="tspan4837"
         x="174.62686"
         y="44.727642"
         style="stroke-width:0.15768179">i++</tspan></text>
    <text
       xml:space="preserve"
       style="font-style:normal;font-weight:normal;font-size:5.41345024px;line-height:1.25;font-family:sans-serif;letter-spacing:0px;word-spacing:0px;fill:#000000;fill-opacity:1;stroke:none;stroke-width:0.13533625"
       x="93.236877"
       y="131.98355"
       id="text4843"
       transform="scale(1.1064451,0.90379544)"><tspan
         sodipodi:role="line"
         id="tspan4841"
         x="93.236877"
         y="131.98355"
         style="stroke-width:0.13533625">b</tspan></text>
    <rect
       style="fill:none;stroke:#000000;stroke-width:0.26458332;stroke-opacity:1"
       id="rect4845"
       width="4.9388885"
       height="5.2034721"
       x="103.0111"
       y="121.22847" />
    <ellipse
       style="fill:#c80000;stroke:#000000;stroke-width:0.26458332;stroke-opacity:1;fill-opacity:1"
       id="path4847"
       cx="146.22639"
       cy="118.75903"
       rx="6.8791666"
       ry="7.1437497" />
    <g
       id="g4870"
       transform="rotate(35.611051,107.61176,126.31653)">
      <path
         inkscape:connector-curvature="0"
         id="path4849"
         d="m 105.21597,124.13889 c 0.4577,0.29448 0.31134,-0.36837 0.52917,-0.44097 0.0558,-0.0186 0.12061,0.0186 0.17639,0 0.0394,-0.0131 0.0588,-0.0588 0.0882,-0.0882 0.0588,-0.0294 0.11262,-0.0722 0.17639,-0.0882 0.057,-0.0143 0.12747,0.0326 0.17639,0 0.13837,-0.0922 0.22651,-0.24456 0.35278,-0.35278 0.0805,-0.069 0.17639,-0.11759 0.26458,-0.17639 0.17639,-0.11759 0.34511,-0.2476 0.52917,-0.35278 0.2283,-0.13046 0.47037,-0.23518 0.70555,-0.35278 0.71364,-0.35681 0.6275,-0.33101 1.32292,-0.61736 0.29278,-0.12055 0.59186,-0.22586 0.88194,-0.35277 0.18068,-0.079 0.34713,-0.18874 0.52917,-0.26459 0.17163,-0.0715 0.36035,-0.0985 0.52917,-0.17639 0.2152,-0.0993 0.40216,-0.25345 0.61736,-0.35277 0.44721,-0.20641 0.52757,-0.15395 0.97014,-0.26459 0.20763,-0.0519 0.40903,-0.12737 0.61736,-0.17639 0.29183,-0.0687 0.59308,-0.0962 0.88194,-0.17639 0.24202,-0.0672 0.46188,-0.20366 0.70556,-0.26458 0.22994,-0.0575 0.47561,-0.0307 0.70555,-0.0882 0.24368,-0.0609 0.4687,-0.18099 0.70556,-0.26459 0.26299,-0.0928 0.53261,-0.16666 0.79375,-0.26458 0.20963,-0.0786 0.40366,-0.1978 0.61736,-0.26458 0.2587,-0.0808 0.53505,-0.0955 0.79375,-0.17639 0.2137,-0.0668 0.40496,-0.19379 0.61736,-0.26459 0.22998,-0.0767 0.47246,-0.10979 0.70556,-0.17638 0.17877,-0.0511 0.34979,-0.12747 0.52916,-0.17639 0.43865,-0.11963 0.7597,-0.10853 1.23473,-0.17639 0.14839,-0.0212 0.29311,-0.0635 0.44097,-0.0882 0.33807,-0.0563 0.80485,-0.10317 1.14653,-0.17639 0.23704,-0.0508 0.46595,-0.13952 0.70555,-0.17638 0.14528,-0.0224 0.29684,0.0288 0.44097,0 0.15524,-0.0311 0.28824,-0.13474 0.44098,-0.17639 0.37654,-0.1027 0.46852,-0.0882 0.79375,-0.0882 0.0882,0 0.17727,0.0125 0.26458,0 0.11999,-0.0171 0.23278,-0.071 0.35278,-0.0882 0.0873,-0.0125 0.17759,0.0145 0.26458,0 0.5641,-0.094 -0.0662,-0.10804 0.61736,-0.17639 0.17551,-0.0175 0.35278,0 0.52917,0 0.32338,0 0.64676,0 0.97014,0 0.17639,0 0.35385,0.0195 0.52916,0 0.0924,-0.0103 0.17289,-0.0729 0.26459,-0.0882 0.087,-0.0145 0.17639,0 0.26458,0 0.0882,0 0.17639,0 0.26458,0 0.26459,0 0.52917,0 0.79375,0 0.29398,0 0.58797,0 0.88195,0 0.11759,0 0.23518,0 0.35277,0 0.0588,0 0.12381,0.0263 0.17639,0 0.0744,-0.0372 0.0992,-0.1455 0.17639,-0.17638 0.0198,-0.008 0.49092,0.008 0.52917,0 0.57244,-0.11449 -0.19656,-0.0882 0.35278,-0.0882 0.20578,0 0.41157,0 0.61736,0 0.0397,0 0.23774,0.0134 0.26458,0 0.0372,-0.0186 0.051,-0.0696 0.0882,-0.0882 0.0263,-0.0131 0.0588,0 0.0882,0 0.0588,0 0.11759,0 0.17639,0 0.26458,0 0.52917,0 0.79375,0 0.0588,0 0.11759,0 0.17639,0 0.0588,0 0.12061,0.0186 0.17639,0 0.0394,-0.0131 0.051,-0.0696 0.0882,-0.0882 0.0232,-0.0116 0.30666,0 0.35278,0 0.26458,0 0.52917,0 0.79375,0 0.55856,0 1.11713,0 1.67569,0"
         style="fill:none;stroke:#000000;stroke-width:0.26458332px;stroke-linecap:butt;stroke-linejoin:miter;stroke-opacity:1" />
      <path
         inkscape:connector-curvature="0"
         id="path4851"
         d="m 138.81808,116.28954 c -0.32339,-0.38216 -0.64966,-0.7619 -0.97017,-1.14649 -0.0266,-0.0319 0.051,0.0696 0.0882,0.0882 0.0263,0.0131 0.0674,-0.0208 0.0882,0 0.0208,0.0208 -0.0263,0.075 0,0.0882 0.0526,0.0263 0.12061,-0.0186 0.17639,0 0.0789,0.0263 0.10202,0.13921 0.17639,0.17639 0.0263,0.0131 0.0588,0 0.0882,0 0.0588,0.0294 0.12169,0.0517 0.17638,0.0882 0.0346,0.0231 0.0696,0.051 0.0882,0.0882 0.0131,0.0263 -0.0263,0.0751 0,0.0882 0.49977,0 0.0294,-0.0588 0.17639,0.0882 0.0208,0.0208 0.0674,-0.0208 0.0882,0 0.0208,0.0208 0.0109,0.0609 0,0.0882 -0.14865,0.37165 -0.2545,0.46415 -0.52916,0.79375 -0.0266,0.0319 -0.0651,0.0536 -0.0882,0.0882 -0.0365,0.0547 -0.0417,0.1299 -0.0882,0.17639 -0.14699,0.14699 -0.0882,-0.32338 -0.0882,0.17639 0,0.0294 -0.0169,0.11228 0,0.0882 0.21982,-0.31403 0.41159,-0.64679 0.61739,-0.97018"
         style="fill:none;stroke:#000000;stroke-width:0.26458332px;stroke-linecap:butt;stroke-linejoin:miter;stroke-opacity:1" />
    </g>
    <ellipse
       style="fill:#c80000;fill-opacity:1;stroke:#000000;stroke-width:0.26458332;stroke-opacity:1"
       id="path4847-0"
       cx="146.40279"
       cy="135.075"
       rx="6.8791666"
       ry="7.1437502" />
  </g>
</svg>
